%!PS-Adobe-3.0 EPSF-3.0
%%Title: Laufzeit.fig
%%Creator: fig2dev Version 3.2 Patchlevel 5d
%%CreationDate: Tue Nov 29 12:08:34 2011
%%BoundingBox: 0 0 154 153
%Magnification: 1.0000
%%EndComments
%%BeginProlog
/$F2psDict 200 dict def
$F2psDict begin
$F2psDict /mtrx matrix put
/col-1 {0 setgray} bind def
/col0 {0.000 0.000 0.000 srgb} bind def
/col1 {0.000 0.000 1.000 srgb} bind def
/col2 {0.000 1.000 0.000 srgb} bind def
/col3 {0.000 1.000 1.000 srgb} bind def
/col4 {1.000 0.000 0.000 srgb} bind def
/col5 {1.000 0.000 1.000 srgb} bind def
/col6 {1.000 1.000 0.000 srgb} bind def
/col7 {1.000 1.000 1.000 srgb} bind def
/col8 {0.000 0.000 0.560 srgb} bind def
/col9 {0.000 0.000 0.690 srgb} bind def
/col10 {0.000 0.000 0.820 srgb} bind def
/col11 {0.530 0.810 1.000 srgb} bind def
/col12 {0.000 0.560 0.000 srgb} bind def
/col13 {0.000 0.690 0.000 srgb} bind def
/col14 {0.000 0.820 0.000 srgb} bind def
/col15 {0.000 0.560 0.560 srgb} bind def
/col16 {0.000 0.690 0.690 srgb} bind def
/col17 {0.000 0.820 0.820 srgb} bind def
/col18 {0.560 0.000 0.000 srgb} bind def
/col19 {0.690 0.000 0.000 srgb} bind def
/col20 {0.820 0.000 0.000 srgb} bind def
/col21 {0.560 0.000 0.560 srgb} bind def
/col22 {0.690 0.000 0.690 srgb} bind def
/col23 {0.820 0.000 0.820 srgb} bind def
/col24 {0.500 0.190 0.000 srgb} bind def
/col25 {0.630 0.250 0.000 srgb} bind def
/col26 {0.750 0.380 0.000 srgb} bind def
/col27 {1.000 0.500 0.500 srgb} bind def
/col28 {1.000 0.630 0.630 srgb} bind def
/col29 {1.000 0.750 0.750 srgb} bind def
/col30 {1.000 0.880 0.880 srgb} bind def
/col31 {1.000 0.840 0.000 srgb} bind def

end

/cp {closepath} bind def
/ef {eofill} bind def
/gr {grestore} bind def
/gs {gsave} bind def
/sa {save} bind def
/rs {restore} bind def
/l {lineto} bind def
/m {moveto} bind def
/rm {rmoveto} bind def
/n {newpath} bind def
/s {stroke} bind def
/sh {show} bind def
/slc {setlinecap} bind def
/slj {setlinejoin} bind def
/slw {setlinewidth} bind def
/srgb {setrgbcolor} bind def
/rot {rotate} bind def
/sc {scale} bind def
/sd {setdash} bind def
/ff {findfont} bind def
/sf {setfont} bind def
/scf {scalefont} bind def
/sw {stringwidth} bind def
/tr {translate} bind def
/tnt {dup dup currentrgbcolor
  4 -2 roll dup 1 exch sub 3 -1 roll mul add
  4 -2 roll dup 1 exch sub 3 -1 roll mul add
  4 -2 roll dup 1 exch sub 3 -1 roll mul add srgb}
  bind def
/shd {dup dup currentrgbcolor 4 -2 roll mul 4 -2 roll mul
  4 -2 roll mul srgb} bind def
 /DrawEllipse {
	/endangle exch def
	/startangle exch def
	/yrad exch def
	/xrad exch def
	/y exch def
	/x exch def
	/savematrix mtrx currentmatrix def
	x y tr xrad yrad sc 0 0 1 startangle endangle arc
	closepath
	savematrix setmatrix
	} def

/$F2psBegin {$F2psDict begin /$F2psEnteredState save def} def
/$F2psEnd {$F2psEnteredState restore end} def

/pageheader {
save
newpath 0 153 moveto 0 0 lineto 154 0 lineto 154 153 lineto closepath clip newpath
-291.9 378.3 translate
1 -1 scale
$F2psBegin
10 setmiterlimit
0 slj 0 slc
 0.06299 0.06299 sc
} bind def
/pagefooter {
$F2psEnd
restore
} bind def
%%EndProlog
pageheader
%
% Fig objects follow
%
% 
% here starts figure with depth 60
% Ellipse
7.500 slw
n 5894 4872 1125 1125 0 360 DrawEllipse gs 0.00 setgray ef gr gs col0 s gr

% here ends figure;
% 
% here starts figure with depth 58
% Ellipse
7.500 slw
n 5850 4725 1125 1125 0 360 DrawEllipse gs col7 1.00 shd ef gr gs col0 s gr

% here ends figure;
% 
% here starts figure with depth 51
% Ellipse
60.000 slw
n 5850 4725 900 900 0 360 DrawEllipse gs col7 1.00 shd ef gr gs col0 s gr

% Ellipse
0.000 slw
n 6480 4140 201 201 0 360 DrawEllipse gs col7 1.00 shd ef gr 
% Ellipse
n 5289 5400 201 201 0 360 DrawEllipse gs col7 1.00 shd ef gr 
% Ellipse
n 6414 5400 201 201 0 360 DrawEllipse gs col7 1.00 shd ef gr 
% Ellipse
n 4979 4726 201 201 0 360 DrawEllipse gs col7 1.00 shd ef gr 
% Ellipse
n 5289 4050 201 201 0 360 DrawEllipse gs col7 1.00 shd ef gr 
% Ellipse
n 5850 3832 201 201 0 360 DrawEllipse gs col7 1.00 shd ef gr 
% Ellipse
n 6718 4726 201 201 0 360 DrawEllipse gs col7 1.00 shd ef gr 
% Polyline
0 slj
0 slc
7.500 slw
n 5175 4095 m 4725 4410 l 4995 4410 l 5130 4635 l
 cp gs 0.00 setgray ef gr gs col0 s gr 
% Polyline
0.000 slw
n 4635 4635 m
 4635 4770 l 
% Polyline
n 7065 4635 m
 7065 4770 l 
/Times-Roman ff 1270.00 scf sf
5875 5165 m
gs 1 -1 sc ($) dup sw pop 2 div neg 0 rm  col0 sh gr
/Palatino-Bold ff 317.50 scf sf
5850 3915 m
gs 1 -1 sc (0) dup sw pop 2 div neg 0 rm  col0 sh gr
/Palatino-Bold ff 317.50 scf sf
6435 4185 m
gs 1 -1 sc  315.0 rot (15) dup sw pop 2 div neg 0 rm  col0 sh gr
/Palatino-Bold ff 317.50 scf sf
6660 4725 m
gs 1 -1 sc  270.0 rot (12) dup sw pop 2 div neg 0 rm  col0 sh gr
/Palatino-Bold ff 317.50 scf sf
6345 5355 m
gs 1 -1 sc  225.0 rot (9) dup sw pop 2 div neg 0 rm  col0 sh gr
/Palatino-Bold ff 317.50 scf sf
5355 5355 m
gs 1 -1 sc  135.0 rot (6) dup sw pop 2 div neg 0 rm  col0 sh gr
/Palatino-Bold ff 317.50 scf sf
5040 4725 m
gs 1 -1 sc  90.0 rot (3) dup sw pop 2 div neg 0 rm  col0 sh gr
/Palatino-Bold ff 317.50 scf sf
5341 4096 m
gs 1 -1 sc  45.0 rot (1) dup sw pop 2 div neg 0 rm  col0 sh gr
% here ends figure;
pagefooter
showpage
%%Trailer
%EOF
